Progress Memo 1
…
Data source

I am using a dataset that shows the the offensive stats for every team in the NFL in 2016. I found this dataset on data.world It came as a csv and then I uploaded it to R using the function ‘read_csv()’. The dataset contains 32 observations for each team and I am planning to use them all.

Why this data

I chose this data for a few reasons. First, I have been a Kansas City Chiefs Fan since I was little. Because of this, I am a huge fan of the NFL and I understand the sport. I wanted to pick a dataset based in the NFL since I knew I would understand the variables. I chose this NFL dataset specifically because I am more interested in a team’s offense than defense and I am interested to learn more about the different stats within each team.

Data quality & complexity check

miss_var_summary(nfloffenses)

# A tibble: 52 × 3
   variable   n_miss pct_miss
   <chr>       <int>    <dbl>
 1 Team            0        0
 2 Division        0        0
 3 W               0        0
 4 L               0        0
 5 T               0        0
 6 PCT             0        0
 7 Playoffs        0        0
 8 Pts/G           0        0
 9 Total Pts       0        0
10 Scrm Plays      0        0
# ℹ 42 more rows
…
